{
    "name": "DeliveryNote",
    "fields": [
        {
            "fieldName": "noteNumber",
            "fieldType": "String"
        },
        {
            "fieldName": "deliveryAdress",
            "fieldType": "String",
            "fieldValidateRules": [
                "required"
            ]
        },
        {
            "fieldName": "supplierFirm",
            "fieldType": "String",
            "fieldValidateRules": [
                "required"
            ]
        },
        {
            "fieldName": "supplierAdress",
            "fieldType": "String",
            "fieldValidateRules": [
                "required"
            ]
        },
        {
            "fieldName": "issueDate",
            "fieldType": "LocalDate"
        },
        {
            "fieldName": "finished",
            "fieldType": "Boolean",
            "fieldValidateRules": [
                "required"
            ]
        },
        {
            "fieldName": "principal",
            "fieldType": "String",
            "fieldValidateRules": [
                "required"
            ]
        }
    ],
    "relationships": [
        {
            "relationshipType": "one-to-many",
            "relationshipName": "entries",
            "otherEntityName": "deliveryNoteEntry",
            "otherEntityRelationshipName": "deliveryNote"
        }
    ],
    "changelogDate": "20180920135700",
    "entityTableName": "delivery_note",
    "dto": "no",
    "pagination": "no",
    "service": "serviceImpl",
    "jpaMetamodelFiltering": false,
    "fluentMethods": true,
    "clientRootFolder": "",
    "applications": "*",
    "microserviceName": "DeliveryNoteService"
}